C:\Users\jarqu\Documents\NetBeansProjects\mavenproject1\NombreSeccion\src\main\java\root\model\ConvSeccion.java
C:\Users\jarqu\Documents\NetBeansProjects\mavenproject1\NombreSeccion\src\main\java\root\controller\Controller.java
C:\Users\jarqu\Documents\NetBeansProjects\mavenproject1\NombreSeccion\src\main\java\com\athorznet\nombreseccion\JAXRSConfiguration.java
C:\Users\jarqu\Documents\NetBeansProjects\mavenproject1\NombreSeccion\src\main\java\com\athorznet\nombreseccion\resources\JavaEE8Resource.java
